........
----------------------------------------------------------------------
Ran 8 tests in 0.001s

OK
Name               Stmts   Miss Branch BrPart  Cover   Missing
--------------------------------------------------------------
Army.py               41      0     12      0   100%
Diplomacy.py          44      0     42      0   100%
Location.py           17      0      2      0   100%
TestDiplomacy.py      49      0      0      0   100%
--------------------------------------------------------------
TOTAL                151      0     56      0   100%
